vhdl isim_temp "shifter.vhd"
vhdl isim_temp "rom_upravljacka.vhd"
vhdl isim_temp "registri.vhd"
vhdl isim_temp "mmux.vhd"
vhdl isim_temp "mir.vhd"
vhdl isim_temp "mbr.vhd"
vhdl isim_temp "mar.vhd"
vhdl isim_temp "logika.vhd"
vhdl isim_temp "latch.vhd"
vhdl isim_temp "distributer.vhd"
vhdl isim_temp "amux.vhd"
vhdl isim_temp "alu.vhd"
vhdl isim_temp "CPU.vhd"
