V3 55
FL $XILINX/Ogledni/alu.vhd 2017/02/17.23:31:43 J.36
EN work/alu 1487370734 FL $XILINX/Ogledni/alu.vhd PB ieee/std_logic_1164 1179176983 \
      PB ieee/STD_LOGIC_SIGNED 1179176989 PB ieee/NUMERIC_STD 1179176997
AR work/alu/Behavioral 1487370735 \
      FL $XILINX/Ogledni/alu.vhd EN work/alu 1487370734
FL $XILINX/Ogledni/amux.vhd 2017/02/17.23:31:43 J.36
EN work/amux 1487370732 FL $XILINX/Ogledni/amux.vhd PB ieee/std_logic_1164 1179176983 \
      PB ieee/std_logic_arith 1179176985 PB ieee/STD_LOGIC_UNSIGNED 1179176991
AR work/amux/Behavioral 1487370733 \
      FL $XILINX/Ogledni/amux.vhd EN work/amux 1487370732
FL $XILINX/Ogledni/CPU.vhd 2017/02/17.23:31:42 J.36
EN work/CPU 1487370746 FL $XILINX/Ogledni/CPU.vhd PB ieee/std_logic_1164 1179176983 \
      PB ieee/std_logic_arith 1179176985 PB ieee/STD_LOGIC_UNSIGNED 1179176991
AR work/CPU/Behavioral 1487370747 \
      FL $XILINX/Ogledni/CPU.vhd EN work/CPU 1487370746 CP distributer \
      CP rom_upravljacka CP mir CP registri CP latch CP amux CP alu CP shifter \
      CP logika CP mmux CP mar CP mbr
FL $XILINX/Ogledni/distributer.vhd 2017/02/17.23:31:42 J.36
EN work/distributer 1487370722 FL $XILINX/Ogledni/distributer.vhd \
      PB ieee/std_logic_1164 1179176983 PB ieee/std_logic_arith 1179176985 \
      PB ieee/STD_LOGIC_UNSIGNED 1179176991
AR work/distributer/Behavioral 1487370723 \
      FL $XILINX/Ogledni/distributer.vhd EN work/distributer 1487370722
FL $XILINX/Ogledni/latch.vhd 2017/02/17.23:31:43 J.36
EN work/latch 1487370730 FL $XILINX/Ogledni/latch.vhd PB ieee/std_logic_1164 1179176983 \
      PB ieee/std_logic_arith 1179176985 PB ieee/STD_LOGIC_UNSIGNED 1179176991
AR work/latch/Behavioral 1487370731 \
      FL $XILINX/Ogledni/latch.vhd EN work/latch 1487370730
FL $XILINX/Ogledni/logika.vhd 2017/02/17.23:31:43 J.36
EN work/logika 1487370738 FL $XILINX/Ogledni/logika.vhd PB ieee/std_logic_1164 1179176983 \
      PB ieee/std_logic_arith 1179176985 PB ieee/STD_LOGIC_UNSIGNED 1179176991
AR work/logika/Behavioral 1487370739 \
      FL $XILINX/Ogledni/logika.vhd EN work/logika 1487370738
FL $XILINX/Ogledni/mar.vhd 2017/02/17.23:31:43 J.36
EN work/mar 1487370742 FL $XILINX/Ogledni/mar.vhd PB ieee/std_logic_1164 1179176983 \
      PB ieee/std_logic_arith 1179176985 PB ieee/STD_LOGIC_UNSIGNED 1179176991
AR work/mar/Behavioral 1487370743 \
      FL $XILINX/Ogledni/mar.vhd EN work/mar 1487370742
FL $XILINX/Ogledni/mbr.vhd 2017/02/17.23:31:32 J.36
EN work/mbr 1487370744 FL $XILINX/Ogledni/mbr.vhd PB ieee/std_logic_1164 1179176983 \
      PB ieee/std_logic_arith 1179176985 PB ieee/STD_LOGIC_UNSIGNED 1179176991
AR work/mbr/Behavioral 1487370745 \
      FL $XILINX/Ogledni/mbr.vhd EN work/mbr 1487370744
FL $XILINX/Ogledni/mir.vhd 2017/02/17.23:31:42 J.36
EN work/mir 1487370726 FL $XILINX/Ogledni/mir.vhd PB ieee/std_logic_1164 1179176983 \
      PB ieee/std_logic_arith 1179176985 PB ieee/STD_LOGIC_UNSIGNED 1179176991
AR work/mir/Behavioral 1487370727 \
      FL $XILINX/Ogledni/mir.vhd EN work/mir 1487370726
FL $XILINX/Ogledni/mmux.vhd 2017/02/17.23:31:43 J.36
EN work/mmux 1487370740 FL $XILINX/Ogledni/mmux.vhd PB ieee/std_logic_1164 1179176983 \
      PB ieee/std_logic_arith 1179176985 PB ieee/STD_LOGIC_UNSIGNED 1179176991
AR work/mmux/Behavioral 1487370741 \
      FL $XILINX/Ogledni/mmux.vhd EN work/mmux 1487370740
FL $XILINX/Ogledni/registri.vhd 2017/02/17.23:31:43 J.36
EN work/registri 1487370728 FL $XILINX/Ogledni/registri.vhd PB ieee/std_logic_1164 1179176983 \
      PB ieee/std_logic_arith 1179176985 PB ieee/STD_LOGIC_UNSIGNED 1179176991
AR work/registri/Behavioral 1487370729 \
      FL $XILINX/Ogledni/registri.vhd EN work/registri 1487370728
FL $XILINX/Ogledni/rom_upravljacka.vhd 2017/02/17.23:31:42 J.36
EN work/rom_upravljacka 1487370724 FL $XILINX/Ogledni/rom_upravljacka.vhd \
      PB ieee/std_logic_1164 1179176983 PB ieee/std_logic_arith 1179176985 \
      PB ieee/STD_LOGIC_UNSIGNED 1179176991
AR work/rom_upravljacka/Behavioral 1487370725 \
      FL $XILINX/Ogledni/rom_upravljacka.vhd EN work/rom_upravljacka 1487370724
FL $XILINX/Ogledni/shifter.vhd 2017/02/17.23:31:43 J.36
EN work/shifter 1487370736 FL $XILINX/Ogledni/shifter.vhd PB ieee/std_logic_1164 1179176983 \
      PB ieee/std_logic_arith 1179176985 PB ieee/STD_LOGIC_UNSIGNED 1179176991
AR work/shifter/Behavioral 1487370737 \
      FL $XILINX/Ogledni/shifter.vhd EN work/shifter 1487370736
FL $XILINX/Ogledni/Test.vhd 2017/02/17.23:29:10 J.36
EN work/Test_vhd 1487370748 FL $XILINX/Ogledni/Test.vhd PB ieee/std_logic_1164 1179176983 \
      PB ieee/STD_LOGIC_UNSIGNED 1179176991 PB ieee/NUMERIC_STD 1179176997
AR work/Test_vhd/behavior 1487370749 \
      FL $XILINX/Ogledni/Test.vhd EN work/Test_vhd 1487370748 CP CPU
